CNF,CPU_1_Nop,GPU_250_RVSIDS,GPU_250_RAssign
aim-100-1_6-no-1.cnf,468,69,53
aim-100-1_6-no-2.cnf,757,100,37
aim-100-1_6-no-3.cnf,460,90,46
aim-100-1_6-no-4.cnf,559,69,45
aim-100-1_6-yes1-1.cnf,538,170,105
aim-100-1_6-yes1-2.cnf,308,186,92
aim-100-1_6-yes1-3.cnf,716,165,164
aim-100-1_6-yes1-4.cnf,742,172,100
aim-100-2_0-no-1.cnf,317,67,35
aim-100-2_0-no-2.cnf,622,88,28
aim-100-2_0-no-3.cnf,417,88,27
aim-100-2_0-no-4.cnf,685,110,43
aim-100-2_0-yes1-1.cnf,1513,214,116
aim-100-2_0-yes1-2.cnf,1338,164,129
aim-100-2_0-yes1-3.cnf,1422,206,140
aim-100-2_0-yes1-4.cnf,874,202,140
aim-100-3_4-yes1-1.cnf,2794,186,118
aim-100-3_4-yes1-2.cnf,1117,192,135
aim-100-3_4-yes1-3.cnf,7403,194,121
aim-100-3_4-yes1-4.cnf,3702,163,123
aim-100-6_0-yes1-1.cnf,819,175,112
aim-100-6_0-yes1-2.cnf,275,161,92
aim-100-6_0-yes1-3.cnf,413,145,92
aim-100-6_0-yes1-4.cnf,756,145,116
aim-200-1_6-no-1.cnf,882,128,77
aim-200-1_6-no-2.cnf,1752,252,99
aim-200-1_6-no-3.cnf,2178,210,81
aim-200-1_6-no-4.cnf,961,163,88
aim-200-1_6-yes1-1.cnf,1579,379,275
aim-200-1_6-yes1-2.cnf,2075,376,273
aim-200-1_6-yes1-3.cnf,2781,365,278
aim-200-1_6-yes1-4.cnf,1207,283,226
aim-200-2_0-no-1.cnf,2683,242,115
aim-200-2_0-no-2.cnf,2138,223,133
aim-200-2_0-no-3.cnf,897,207,59
aim-200-2_0-no-4.cnf,1184,159,63
aim-200-2_0-yes1-1.cnf,3394,394,311
aim-200-2_0-yes1-2.cnf,3260,392,320
aim-200-2_0-yes1-3.cnf,2319,427,248
aim-200-2_0-yes1-4.cnf,6564,360,335
aim-200-3_4-yes1-1.cnf,29081,369,275
aim-200-3_4-yes1-2.cnf,34477,351,254
aim-200-3_4-yes1-3.cnf,13844,394,261
aim-200-3_4-yes1-4.cnf,8090,404,276
aim-200-6_0-yes1-1.cnf,12334,291,232
aim-200-6_0-yes1-2.cnf,8288,302,234
aim-200-6_0-yes1-3.cnf,30656,477,339
aim-200-6_0-yes1-4.cnf,3298,309,223
aim-50-1_6-no-1.cnf,113,31,17
aim-50-1_6-no-2.cnf,268,44,17
aim-50-1_6-no-3.cnf,201,39,19
aim-50-1_6-no-4.cnf,109,37,11
aim-50-1_6-yes1-1.cnf,147,95,60
aim-50-1_6-yes1-2.cnf,241,96,59
aim-50-1_6-yes1-3.cnf,200,77,58
aim-50-1_6-yes1-4.cnf,158,74,46
aim-50-2_0-no-1.cnf,180,53,15
aim-50-2_0-no-2.cnf,194,43,27
aim-50-2_0-no-3.cnf,336,61,23
aim-50-2_0-no-4.cnf,230,59,18
aim-50-2_0-yes1-1.cnf,369,59,64
aim-50-2_0-yes1-2.cnf,542,88,61
aim-50-2_0-yes1-3.cnf,735,95,50
aim-50-2_0-yes1-4.cnf,465,83,42
aim-50-3_4-yes1-1.cnf,1342,105,59
aim-50-3_4-yes1-2.cnf,845,120,62
aim-50-3_4-yes1-3.cnf,55,50,50
aim-50-3_4-yes1-4.cnf,531,72,53
aim-50-6_0-yes1-1.cnf,104,77,42
aim-50-6_0-yes1-2.cnf,451,69,45
aim-50-6_0-yes1-3.cnf,204,72,50
aim-50-6_0-yes1-4.cnf,187,79,51
aim-50-no-ok.cnf,113,31,16
aim-50-yes-ok.cnf,147,87,59
bug001.cnf,538,156,118
hole6.cnf,14691,462,446
hole7.cnf,135458,2237,2256
ii16a1.cnf,16562,3704,2527
ii16a2.cnf,27423,3431,2342
ii16b1.cnf,69189,4559,3250
ii16b2.cnf,8299,2133,1510
ii16c1.cnf,355434,4465,4468
ii16c2.cnf,4660,1546,1147
ii16d1.cnf,12923,2904,2963
ii16d2.cnf,24087,2029,831
ii16e1.cnf,183890,3338,2813
ii16e2.cnf,7496,1069,1092
ii32a1.cnf,141646,1359,1319
ii32b1.cnf,6679,304,220
ii32b2.cnf,15870,885,306
ii32b3.cnf,71463,1481,340
ii32b4.cnf,10770,1077,384
ii32c1.cnf,362,225,217
ii32c2.cnf,450,297,241
ii32c3.cnf,12867,730,271
ii32c4.cnf,243535,2449,1588
ii32d1.cnf,4350,498,330
